Tuango - RFM Analysis for Mobile App Push Messaging
…
Based on sequantial RFM,the profit is 336439.5RMB, ROME 1.297316, which are higher than independent RFM.
 Based on independent RFM,the profit is 331967.4, ROME 1.188697.
 So sequantial RFM outperformed independent RFM.

10. What do you notice when you compare the rfm_iq and rfm_sq variables? That is  do the two approaches generally yield the same RFM index for any given customer?

No.The indexes are not the same.

diff=tuango_sq[tuango_sq$rfm_iq_pre!=tuango_sq$rfm_sq,]
diff

# A tibble: 10,284 x 17
   userid    recency frequency monetary rfm_iq_pre buyer ordersize platform category mobile_os rec_iq fre_iq mon_iq fre_sq mon_sq rec_sq rfm_sq
   <chr>       <int>     <int>    <dbl> <chr>      <fct>     <dbl> <fct>       <int> <fct>      <int>  <int>  <int>  <int>  <int>  <int> <chr> 
 1 U96495706     101         4     70   533        no            0 Browser         3 android        5      3      3      3      4      5 534   
 2 U79189310      79         4     37.6 534        no            0 App             3 android        5      3      4      3      5      5 535   
 3 U67701028      78         1     72.9 453        no            0 App             3 android        4      5      3      5      2      4 452   
 4 U93348582      62         6     36.9 414        no            0 App             3 android        4      1      4      2      4      4 424   
 5 U19691266      44         6     19.8 415        no            0 App             3 android        4      1      5      2      5      4 425   
 6 U68753238      28         4    108   332        no            0 App             3 android        3      3      2      3      3      3 333   
 7 U43344148      16         2     36   244        no            0 App             3 android        2      4      4      5      4      2 254   
 8 U41921084      15         2     31   244        no            0 Browser         3 others         2      4      4      5      4      2 254   
 9 U11113033      14         2     35   244        no            0 App             3 android        2      4      4      5      4      2 254   
10 U67723307      13         6     19   215        no            0 App             3 android        2      1      5      2      5      2 225   
#  with 10,274 more rows
…
